MTG Goldfish
…
Esto ya es ms manejable. Usamos la funcin str_split() con as.data.frame() y tbl_df() para convertir estos datos a un data frame, que llamaremos df_dom

df_dom <- 
  mtg_dom %>% 
  html_nodes(css = ".index-price-table-paper tbody tr") %>% 
  html_text() %>% 
  str_split(pattern = "\\n", simplify = T) %>%
  as.data.frame() %>%
  tbl_df()

Veamos el resultado.

df_dom

## # A tibble: 277 x 25
##    V1    V2    V3    V4    V5    V6    V7    V8    V9    V10   V11   V12  
##    <fct> <fct> <fct> <fct> <fct> <fct> <fct> <fct> <fct> <fct> <fct> <fct>
##  1 Tefe~ DOM   Myth~ ""    44.50 ""    ""    ""    -0.49 ""    ""    ""   
##  2 Karn~ DOM   Myth~ ""    32.68 ""    ""    ""    +0.13 ""    ""    ""   
##  3 Lyra~ DOM   Myth~ ""    12.94 ""    ""    ""    +0.08 ""    ""    ""   
##  4 Mox ~ DOM   Myth~ ""    11.04 ""    ""    ""    -0.04 ""    ""    ""   
##  5 Hist~ DOM   Myth~ ""    10.41 ""    ""    ""    +0.01 ""    ""    ""   
##  6 Jaya~ DOM   Myth~ ""    4.54  ""    ""    ""    -0.05 ""    ""    ""   
##  7 Sulf~ DOM   Rare  ""    4.49  ""    ""    ""    0.00  ""    ""    ""   
##  8 Gobl~ DOM   Rare  ""    4.17  ""    ""    ""    -0.06 ""    ""    ""   
##  9 Stee~ DOM   Rare  ""    3.75  ""    ""    ""    0.00  ""    ""    ""   
## 10 Wood~ DOM   Rare  ""    3.69  ""    ""    ""    0.00  ""    ""    ""   
## # ... with 267 more rows, and 13 more variables: V13 <fct>, V14 <fct>,
## #   V15 <fct>, V16 <fct>, V17 <fct>, V18 <fct>, V19 <fct>, V20 <fct>,
## #   V21 <fct>, V22 <fct>, V23 <fct>, V24 <fct>, V25 <fct>
…
df_dom <- 
  df_dom %>% 
  select("Carta" = V1, "Set" = V2, "Rareza" = V3, "Precio" = V5) %>% 
  mutate(Precio = as.numeric(as.character(Precio)), 
         Rareza = factor(Rareza, levels = c("Basic Land","Common",
                                            "Uncommon", "Rare", "Mythic"))) %>% 
  mutate_at(c("Carta", "Set"), as.character) %>% 
  filter(Rareza != "Basic Land")

Veamos nuestro resultado.

df_dom

## # A tibble: 257 x 4
##    Carta                     Set   Rareza Precio
##    <chr>                     <chr> <fct>   <dbl>
##  1 Teferi, Hero of Dominaria DOM   Mythic  44.5 
##  2 Karn, Scion of Urza       DOM   Mythic  32.7 
##  3 Lyra Dawnbringer          DOM   Mythic  12.9 
##  4 Mox Amber                 DOM   Mythic  11.0 
##  5 History of Benalia        DOM   Mythic  10.4 
##  6 Jaya Ballard              DOM   Mythic   4.54
##  7 Sulfur Falls              DOM   Rare     4.49
##  8 Goblin Chainwhirler       DOM   Rare     4.17
##  9 Steel Leaf Champion       DOM   Rare     3.75
## 10 Woodland Cemetery         DOM   Rare     3.69
## # ... with 247 more rows
…
Ahora aplicamos esta funcin, agrupando por rareza de las cartas. Nos interesa que una carta sea excepcionalmente cara o barata con respecto al mismo tipo de carta. No tiene mucho sentido comparar los precios de No comunes con Mticas, pues estas ltimas siempre tienen un precio ms alto que las primeras.

Hacemos un mutate() adicional para etiquetar los outlier con el nombre de la carta, esto nos ser til ms adelante (podra usar una sola llamada de mutate(), pero he preferido presentarlo as para hacer ms claro qu est ocurriendo).

df_dom <- 
  df_dom %>% 
  group_by(Rareza) %>% 
  mutate(Outlier = tag_outlier(Precio)) %>% 
  mutate(Outlier = ifelse(Outlier, Carta, NA))

Nuestro resultado es el siguiente.

df_dom

## # A tibble: 257 x 5
## # Groups:   Rareza [4]
##    Carta                     Set   Rareza Precio Outlier                  
##    <chr>                     <chr> <fct>   <dbl> <chr>                    
##  1 Teferi, Hero of Dominaria DOM   Mythic  44.5  Teferi, Hero of Dominaria
##  2 Karn, Scion of Urza       DOM   Mythic  32.7  Karn, Scion of Urza      
##  3 Lyra Dawnbringer          DOM   Mythic  12.9  <NA>                     
##  4 Mox Amber                 DOM   Mythic  11.0  <NA>                     
##  5 History of Benalia        DOM   Mythic  10.4  <NA>                     
##  6 Jaya Ballard              DOM   Mythic   4.54 <NA>                     
##  7 Sulfur Falls              DOM   Rare     4.49 Sulfur Falls             
##  8 Goblin Chainwhirler       DOM   Rare     4.17 Goblin Chainwhirler      
##  9 Steel Leaf Champion       DOM   Rare     3.75 Steel Leaf Champion      
## 10 Woodland Cemetery         DOM   Rare     3.69 Woodland Cemetery        
## # ... with 247 more rows
…
Probamos nuestra funcin.

set.seed(8244)
caja_dom <- simular_caja(datos = df_fom)

Comprobamos que hemos generado 36 cartas Raras o Mticas.

caja_dom %>% 
  filter(Rareza %in% c("Rare", "Mythic"))

## # A tibble: 36 x 5
## # Groups:   Rareza [2]
##    Carta                     Set   Rareza Precio Outlier                
##    <chr>                     <chr> <fct>   <dbl> <chr>                  
##  1 Dread Shade               DOM   Rare     0.59 <NA>                   
##  2 Jodah, Archmage Eternal   DOM   Rare     0.46 <NA>                   
##  3 Urza's Ruinous Blast      DOM   Rare     0.6  <NA>                   
##  4 Niambi, Faithful Healer   DOM   Rare     0.35 <NA>                   
##  5 Shalai, Voice of Plenty   DOM   Rare     2.8  Shalai, Voice of Plenty
##  6 Marwyn, the Nurturer      DOM   Rare     0.63 <NA>                   
##  7 Torgaar, Famine Incarnate DOM   Rare     0.5  <NA>                   
##  8 Cabal Stronghold          DOM   Rare     1.07 <NA>                   
##  9 Karn, Scion of Urza       DOM   Mythic  32.7  Karn, Scion of Urza    
## 10 Niambi, Faithful Healer   DOM   Rare     0.35 <NA>                   
## # ... with 26 more rows
…
set.seed(3356)

ciencajas_dom <- 
  map(1:100, function(x) {
    simular_caja(datos = df_dom) %>% 
      summarize(Valor = sum(Precio))
  }) %>% 
  reduce(bind_rows)

Como anteriormente dejamos agrupados nuestros datos por rareza, obtendremos un data frame con cerca de 400 renglones, uno por rareza de cada caja de Magic simulada. No siempre ser 400, pues hay una probabilidad de que una desafortunada caja no tenga ni una sola carta Mtica.

ciencajas_dom

## # A tibble: 398 x 2
##    Rareza   Valor
##    <fct>    <dbl>
##  1 Common    52.0
##  2 Uncommon  34.0
##  3 Rare      28.3
##  4 Mythic    46  
##  5 Common    53.8
##  6 Uncommon  33.0
##  7 Rare      28.0
##  8 Mythic    85.0
##  9 Common    51.9
## 10 Uncommon  35.1
## # ... with 388 more rows
…
Pongamos a prueba nuestra funcin.

set.seed(3356)

ciencajas_dom <- simular_ciencajas(datos = df_dom)

Nuestro resultado es muy similar al anterior, slo que ahora tenemos identificador por caja.

ciencajas_dom

## # A tibble: 398 x 3
##    Rareza   Valor Id_caja
##    <fct>    <dbl>   <int>
##  1 Common    52.0       1
##  2 Uncommon  34.0       1
##  3 Rare      28.3       1
##  4 Mythic    46         1
##  5 Common    53.8       2
##  6 Uncommon  33.0       2
##  7 Rare      28.0       2
##  8 Mythic    85.0       2
##  9 Common    51.9       3
## 10 Uncommon  35.1       3
## # ... with 388 more rows
…
set.seed(3356)
ciencajas_dom <- simular_ciencajas(datos = df_dom)

ciencajas_dom

## # A tibble: 398 x 3
##    Rareza   Valor Id_caja
##    <fct>    <dbl>   <int>
##  1 Common    3.48       1
##  2 Uncommon 34.0        1
##  3 Rare     28.3        1
##  4 Mythic   46          1
##  5 Common    5.71       2
##  6 Uncommon 33.0        2
##  7 Rare     28.0        2
##  8 Mythic   85.0        2
##  9 Common    3.03       3
## 10 Uncommon 35.1        3
## # ... with 388 more rows
…
## Data: valor_cajas (100 obs.);    Bandwidth 'bw' = 10.87
## 
##        x                y            
##  Min.   : 34.88   Min.   :4.123e-06  
##  1st Qu.: 87.23   1st Qu.:4.144e-04  
##  Median :139.58   Median :2.823e-03  
##  Mean   :139.58   Mean   :4.770e-03  
##  3rd Qu.:191.93   3rd Qu.:8.947e-03  
##  Max.   :244.28   Max.   :1.417e-02  
## 
## $probabilidad
## 0.5385673 with absolute error < 9.3e-06
## 
## $df_densidad
## # A tibble: 512 x 3
##        x         y Tipo 
##    <dbl>     <dbl> <chr>
##  1  34.9 0.0000161 Menor
##  2  35.3 0.0000183 Menor
##  3  35.7 0.0000207 Menor
##  4  36.1 0.0000233 Menor
##  5  36.5 0.0000263 Menor
##  6  36.9 0.0000296 Menor
##  7  37.3 0.0000333 Menor
##  8  37.7 0.0000373 Menor
##  9  38.2 0.0000420 Menor
## 10  38.6 0.0000470 Menor
## # ... with 502 more rows
…
De esta manera, podemos realizar el anlisis de cualquier set en un solo paso, siempre y cuando descarguemos primero los datos de este de MTG Goldfish.

Por ejemplo, descargamos la informacin del set Ixalan, que tiene la clave IXL con nuestra funcin descargar_set()

descargar_set(clave = "XLN")

Con esos datos, podemos realizar una simulacin usando nuestra funcin analisis_set()

set.seed(256)
analisis_set("goldfish_XLN.html", costo_pagado = 90)

## $df
## # A tibble: 267 x 5
## # Groups:   Rareza [4]
##    Carta                    Set   Rareza Precio Outlier                 
##    <chr>                    <chr> <fct>   <dbl> <chr>                   
##  1 Search for Azcanta       XLN   Rare    19.9  Search for Azcanta      
##  2 Carnage Tyrant           XLN   Mythic  18.5  Carnage Tyrant          
##  3 Vraska's Contempt        XLN   Rare    15.0  Vraska's Contempt       
##  4 Vraska, Relic Seeker     XLN   Mythic   8.62 Vraska, Relic Seeker    
##  5 Settle the Wreckage      XLN   Rare     7.51 Settle the Wreckage     
##  6 Growing Rites of Itlimoc XLN   Rare     5.95 Growing Rites of Itlimoc
##  7 Glacial Fortress         XLN   Rare     5    <NA>                    
##  8 Drowned Catacomb         XLN   Rare     4.88 <NA>                    
##  9 Treasure Map             XLN   Rare     4.32 <NA>                    
## 10 Sunpetal Grove           XLN   Rare     3.84 <NA>                    
## # ... with 257 more rows
## 
## $explorar
## $explorar$precios_resumen
…
## 
## 
## $simulacion
## # A tibble: 399 x 3
##    Rareza   Valor Id_caja
##    <fct>    <dbl>   <int>
##  1 Common    4.53       1
##  2 Uncommon 33.6        1
##  3 Rare     33.2        1
##  4 Mythic   40.2        1
##  5 Common    3.66       2
##  6 Uncommon 31.3        2
##  7 Rare     26.7        2
##  8 Mythic   79.4        2
##  9 Common    5.3        3
## 10 Uncommon 30.6        3
## # ... with 389 more rows
## 
## $valor
##   [1] 111.50 141.12  75.85  74.65  95.11 124.49  99.13 117.25 148.86 125.67
##  [11]  93.92  96.63  81.07 158.24  86.67  69.06 102.46  74.10 190.58  87.94
##  [21] 138.15 102.78  75.01  79.97  99.70  89.16  78.76  86.32  99.36  91.37
##  [31]  78.57 169.51 121.37  95.34 107.60  76.49  66.79  72.12  67.91 194.82
##  [41] 119.30  80.72 173.69 141.25  95.71 179.48 138.83  79.90  65.11  96.93
##  [51] 170.93  99.14 150.42 137.93  79.48  69.17  88.12 138.90 102.46 103.61
…
## Data: valor_cajas (100 obs.);    Bandwidth 'bw' = 10.94
## 
##        x                y            
##  Min.   : 26.72   Min.   :5.328e-06  
##  1st Qu.: 76.95   1st Qu.:7.857e-04  
##  Median :127.18   Median :2.765e-03  
##  Mean   :127.18   Mean   :4.972e-03  
##  3rd Qu.:177.41   3rd Qu.:8.705e-03  
##  Max.   :227.64   Max.   :1.458e-02  
## 
## $densidad$probabilidad
## 0.6219079 with absolute error < 9e-06
## 
## $densidad$df_densidad
## # A tibble: 512 x 3
##        x          y Tipo 
##    <dbl>      <dbl> <chr>
##  1  26.7 0.00000661 Menor
##  2  27.1 0.00000743 Menor
##  3  27.5 0.00000833 Menor
##  4  27.9 0.00000937 Menor
##  5  28.3 0.0000105  Menor
##  6  28.7 0.0000117  Menor
##  7  29.1 0.0000131  Menor
##  8  29.5 0.0000147  Menor
##  9  29.9 0.0000164  Menor
## 10  30.3 0.0000183  Menor
## # ... with 502 more rows
## 
## 
## $inversion
…
